{
	"src"         : {
		"copy"           : [
			"**/*",
			".ebextensions/*.config",
			"!dist/**/*",
			"!dist",
			"!node_modules/**/*",
			"!node_modules",
			"!babelwrapConfig.json",
			"!babelwrapConfig.json.bak",
			"!clientConfig.json",
			"!serverConfig.json",
			"!serverConfig-mod.json",
			"!serverConfigv4-mod.json",
			"!serverConfigv4.json",
			"!gulpfile.js"
		],
		"nowatch"        : [
			"!node_modules/**/*.*"
		],
		"babelFy"        : [
			"**/*.js",
			"!**/*.min.js",
			"!dist/**/*.js",
			"!node_modules/**/*.js",
			"!gulpfile.js"
		],
		"babelFyIncludes": [],
		"copyIncludes"   : []
	},
	"dest"        : "dist",
	"base"        : "",
	"babeloptions": {
		"blacklist" : [
			"bluebirdCoroutines",
			"asyncToGenerator",
			"regenerator",
			"runtime"
		],
		"sourceMaps": true

	},
	"debug"       : false
}